{
    "TOOLBAR_BUTTONS": [
        "microphone", "camera", "closedcaptions", "desktop", "fullscreen",
        "fodeviceselection", "hangup", "profile", "info", "chat", "recording",
        "livestreaming", "etherpad", "sharedvideo", "settings",
        "videoquality", "filmstrip", "invite", "feedback", "stats", "shortcuts",
        "tileview", "videobackgroundblur", "download", "help", "mute-everyone",
        "e2ee"
    ],


    "makeJsonParserHappy": "even if last key had a trailing comma"
}
